<?xml version="1.0" encoding="UTF-8" standalone="no"?>
<svg
   xmlns:dc="http://purl.org/dc/elements/1.1/"
   xmlns:cc="http://creativecommons.org/ns#"
   xmlns:rdf="http://www.w3.org/1999/02/22-rdf-syntax-ns#"
   xmlns:svg="http://www.w3.org/2000/svg"
   xmlns="http://www.w3.org/2000/svg"
   xmlns:xlink="http://www.w3.org/1999/xlink"
   xml:space="preserve"
   style="enable-background:new 0 0 136 136;"
   viewBox="0 0 136 136"
   height="136px"
   width="136px"
   y="0px"
   x="0px"
   id="icons__x28_128_x__x_128_x29_"
   version="1.1"><metadata
     id="metadata95"><rdf:RDF><cc:Work
         rdf:about=""><dc:format>image/svg+xml</dc:format><dc:type
           rdf:resource="http://purl.org/dc/dcmitype/StillImage" /><dc:title></dc:title></cc:Work></rdf:RDF></metadata><defs
     id="defs93" /><g
     id="g3"><defs
       id="defs5"><path
         d="M124,12H12c-4.4,0-8,3.6-8,8v74c0,4.4,3.6,8,8,8h39l-2,10c-3.3,0-6,2.7-6,6v6h50v-6c0-3.3-2.7-6-6-6l-2-10    h39c4.4,0,8-3.6,8-8V20C132,15.6,128.4,12,124,12z"
         id="SVGID_1_" /></defs><clipPath
       id="SVGID_2_"><use
         id="use9"
         style="overflow:visible;"
         xlink:href="#SVGID_1_" /></clipPath><g
       clip-path="url(#SVGID_2_)"
       id="g11"
       style="clip-path:url(#SVGID_2_);"><g
         id="g13"><polygon
           id="polygon15"
           points="87,112 49,112 51,102 85,102    "
           style="fill:#453F3C;" /><polygon
           id="polygon17"
           points="83,112 53,112 55,102 81,102    "
           style="fill:#CCC4C4;" /><g
           id="g19"><defs
             id="defs21"><polygon
               points="83,112 53,112 55,102 81,102      "
               id="SVGID_3_" /></defs><clipPath
             id="SVGID_4_"><use
               id="use25"
               style="overflow:visible;"
               xlink:href="#SVGID_3_" /></clipPath><rect
             clip-path="url(#SVGID_4_)"
             id="rect27"
             height="4"
             width="40"
             style="opacity:0.24;clip-path:url(#SVGID_4_);"
             y="102"
             x="48" /></g><g
           id="g29"><rect
             id="rect31"
             height="6"
             width="2"
             style="mix-blend-mode:soft-light;opacity:0.8;fill:#FFFFFF;"
             y="106"
             x="72" /><rect
             id="rect33"
             height="6"
             width="1"
             style="mix-blend-mode:soft-light;opacity:0.8;fill:#FFFFFF;"
             y="106"
             x="76" /></g></g><g
         id="g35"><path
           id="path37"
           d="M12,102c-4.4,0-8-3.6-8-8V20c0-4.4,3.6-8,8-8h112c4.4,0,8,3.6,8,8v74c0,4.4-3.6,8-8,8H12z"
           style="fill:#453F3C;" /><path
           id="path39"
           d="M124,98H12c-2.2,0-4-1.8-4-4V20c0-2.2,1.8-4,4-4h112c2.2,0,4,1.8,4,4v74C128,96.2,126.2,98,124,98     z"
           style="fill:#EDEDED;" /><path
           id="path41"
           d="M8,84V20c0-2.2,1.8-4,4-4h112c2.2,0,4,1.8,4,4v64H8z"
           style="fill:#453F3C;" /><rect
           id="rect43"
           height="64"
           width="112"
           style="fill:#453F3C;"
           y="20"
           x="12" /><circle
           id="circle45"
           r="3"
           cy="91"
           cx="68"
           style="fill:#453F3C;" /><g
           id="g47"
           style="mix-blend-mode:soft-light;opacity:0.2;"><path
             id="path49"
             d="M49,80H37l64-64h12L49,80z"
             style="fill:#FFFFFF;" /><path
             id="path51"
             d="M27,80h-4l64-64h4L27,80z"
             style="fill:#FFFFFF;" /></g><g
           id="g53"><defs
             id="defs55"><path
               d="M124,98H12c-2.2,0-4-1.8-4-4V20c0-2.2,1.8-4,4-4h112c2.2,0,4,1.8,4,4v74C128,96.2,126.2,98,124,98z"
               id="SVGID_5_" /></defs><clipPath
             id="SVGID_6_"><use
               id="use59"
               style="overflow:visible;"
               xlink:href="#SVGID_5_" /></clipPath><rect
             clip-path="url(#SVGID_6_)"
             id="rect61"
             height="6"
             width="128"
             style="opacity:0.24;clip-path:url(#SVGID_6_);"
             y="96"
             x="4" /></g><g
           id="g63"><rect
             id="rect65"
             height="12"
             width="2"
             style="mix-blend-mode:overlay;opacity:0.4;fill:#FFFFFF;"
             y="84"
             x="83" /><rect
             id="rect67"
             height="12"
             width="1"
             style="mix-blend-mode:overlay;opacity:0.4;fill:#FFFFFF;"
             y="84"
             x="87" /></g></g><g
         id="g69"><path
           id="path71"
           d="M43,124v-6c0-3.3,2.7-6,6-6h38c3.3,0,6,2.7,6,6v6H43z"
           style="fill:#453F3C;" /><path
           id="path73"
           d="M47,120v-2c0-1.1,0.9-2,2-2h38c1.1,0,2,0.9,2,2v2H47z"
           style="fill:#EDEDED;" /><g
           id="g75"><defs
             id="defs77"><path
               d="M47,120v-2c0-1.1,0.9-2,2-2h38c1.1,0,2,0.9,2,2v2H47z"
               id="SVGID_7_" /></defs><clipPath
             id="SVGID_8_"><use
               id="use81"
               style="overflow:visible;"
               xlink:href="#SVGID_7_" /></clipPath><rect
             clip-path="url(#SVGID_8_)"
             id="rect83"
             height="3"
             width="48"
             style="mix-blend-mode:overlay;opacity:0.8;clip-path:url(#SVGID_8_);fill:#FFFFFF;"
             y="115"
             x="43" /></g><g
           id="g85"><rect
             id="rect87"
             height="2"
             width="2"
             style="mix-blend-mode:overlay;opacity:0.8;fill:#FFFFFF;"
             y="118"
             x="76" /><rect
             id="rect89"
             height="2"
             width="1"
             style="mix-blend-mode:overlay;opacity:0.8;fill:#FFFFFF;"
             y="118"
             x="80" /></g></g></g></g></svg>